--- 
recorded_with: VCR 2.4.0
http_interactions: 
- request: 
    method: get
    uri: https://admin-dev.mailroute.net/api/v1/customer/?limit=1
    body: 
      string: ""
    headers: 
      Accept: 
      - application/json
      Accept-Encoding: 
      - identity
      Authorization: 
      - ApiKey blablablablabla@example.com:5f64xxxxxxxxxxxxxxxxxxxxxxxxxxxxxxxx8262
      User-Agent: 
      - Ruby
  response: 
    status: 
      code: 200
      message: OK
    headers: 
      Server: 
      - nginx/1.2.6
      Connection: 
      - keep-alive
      Vary: 
      - Accept, Cookie
      - Accept-Encoding
      Cache-Control: 
      - no-cache
      Content-Type: 
      - application/json; charset=utf-8
      Date: 
      - Sat, 30 Mar 2013 16:01:33 GMT
      Transfer-Encoding: 
      - chunked
    body: 
      string: "{\"meta\": {\"limit\": 1, \"next\": \"/api/v1/customer/?limit=1&offset=1\", \"offset\": 0, \"previous\": null, \"total_count\": 2059}, \"objects\": [{\"absolute_url\": \"/customer/1300/\", \"allow_branding\": false, \"branding_info\": \"/api/v1/brandinginfo/84/\", \"created_at\": \"Fri, 26 Oct 2012 04:18:42 -0700\", \"id\": 1300, \"is_full_user_list\": false, \"name\": \"111testCustomer111cc\", \"reported_user_count\": null, \"reseller\": \"/api/v1/reseller/51/\", \"resource_uri\": \"/api/v1/customer/1300/\", \"updated_at\": \"Fri, 29 Mar 2013 11:43:12 -0700\"}]}"
    http_version: 
  recorded_at: Sat, 30 Mar 2013 16:01:34 GMT
