--- 
recorded_with: VCR 2.4.0
http_interactions: 
- request: 
    method: get
    uri: https://admin-dev.mailroute.net/api/v1/reseller/?order_by=-name
    body: 
      string: ""
    headers: 
      Accept: 
      - application/json
      Accept-Encoding: 
      - identity
      Authorization: 
      - ApiKey blablablablabla@example.com:5f64xxxxxxxxxxxxxxxxxxxxxxxxxxxxxxxx8262
      User-Agent: 
      - Ruby
  response: 
    status: 
      code: 200
      message: OK
    headers: 
      Server: 
      - nginx/1.2.6
      Connection: 
      - keep-alive
      Vary: 
      - Accept, Cookie
      - Accept-Encoding
      Cache-Control: 
      - no-cache
      Content-Type: 
      - application/json; charset=utf-8
      Date: 
      - Sat, 16 Mar 2013 14:17:15 GMT
      Transfer-Encoding: 
      - chunked
    body: 
      string: "{\"meta\": {\"limit\": 20, \"next\": \"/api/v1/reseller/?limit=20&order_by=-name&offset=20\", \"offset\": 0, \"previous\": null, \"total_count\": 84}, \"objects\": [{\"absolute_url\": \"/reseller/12/\", \"allow_branding\": false, \"allow_customer_branding\": false, \"branding_info\": \"/api/v1/brandinginfo/83/\", \"created_at\": \"Thu, 7 Jun 2012 08:28:51 -0700\", \"id\": 12, \"name\": \"Xpansys Limited\", \"resource_uri\": \"/api/v1/reseller/12/\", \"updated_at\": \"Tue, 12 Mar 2013 20:21:14 -0700\"}, {\"absolute_url\": \"/reseller/14/\", \"allow_branding\": false, \"allow_customer_branding\": false, \"branding_info\": \"/api/v1/brandinginfo/82/\", \"created_at\": \"Thu, 7 Jun 2012 08:31:36 -0700\", \"id\": 14, \"name\": \"XFactor Solutions Inc.\", \"resource_uri\": \"/api/v1/reseller/14/\", \"updated_at\": \"Tue, 12 Mar 2013 20:21:14 -0700\"}, {\"absolute_url\": \"/reseller/31/\", \"allow_branding\": false, \"allow_customer_branding\": false, \"branding_info\": \"/api/v1/brandinginfo/81/\", \"created_at\": \"Thu, 7 Jun 2012 09:16:37 -0700\", \"id\": 31, \"name\": \"Xceptional Networks\", \"resource_uri\": \"/api/v1/reseller/31/\", \"updated_at\": \"Tue, 12 Mar 2013 20:21:14 -0700\"}, {\"absolute_url\": \"/reseller/37/\", \"allow_branding\": false, \"allow_customer_branding\": false, \"branding_info\": \"/api/v1/brandinginfo/80/\", \"created_at\": \"Thu, 7 Jun 2012 09:45:31 -0700\", \"id\": 37, \"name\": \"Whipple Hill Communications\", \"resource_uri\": \"/api/v1/reseller/37/\", \"updated_at\": \"Tue, 12 Mar 2013 20:21:14 -0700\"}, {\"absolute_url\": \"/reseller/68/\", \"allow_branding\": false, \"allow_customer_branding\": false, \"branding_info\": \"/api/v1/brandinginfo/79/\", \"created_at\": \"Mon, 31 Dec 2012 05:49:01 -0800\", \"id\": 68, \"name\": \"Web-sites.com\", \"resource_uri\": \"/api/v1/reseller/68/\", \"updated_at\": \"Tue, 12 Mar 2013 20:21:14 -0700\"}, {\"absolute_url\": \"/reseller/40/\", \"allow_branding\": false, \"allow_customer_branding\": false, \"branding_info\": \"/api/v1/brandinginfo/78/\", \"created_at\": \"Thu, 7 Jun 2012 10:09:42 -0700\", \"id\": 40, \"name\": \"Vinko Tsui\", \"resource_uri\": \"/api/v1/reseller/40/\", \"updated_at\": \"Tue, 12 Mar 2013 20:21:14 -0700\"}, {\"absolute_url\": \"/reseller/61/\", \"allow_branding\": false, \"allow_customer_branding\": false, \"branding_info\": \"/api/v1/brandinginfo/77/\", \"created_at\": \"Fri, 7 Dec 2012 01:09:16 -0800\", \"id\": 61, \"name\": \"US Resources\", \"resource_uri\": \"/api/v1/reseller/61/\", \"updated_at\": \"Tue, 12 Mar 2013 20:21:14 -0700\"}, {\"absolute_url\": \"/reseller/72/\", \"allow_branding\": false, \"allow_customer_branding\": false, \"branding_info\": \"/api/v1/brandinginfo/76/\", \"created_at\": \"Mon, 14 Jan 2013 05:47:40 -0800\", \"id\": 72, \"name\": \"UONAUSTIN.COM\", \"resource_uri\": \"/api/v1/reseller/72/\", \"updated_at\": \"Tue, 12 Mar 2013 20:21:14 -0700\"}, {\"absolute_url\": \"/reseller/24/\", \"allow_branding\": false, \"allow_customer_branding\": false, \"branding_info\": \"/api/v1/brandinginfo/75/\", \"created_at\": \"Thu, 7 Jun 2012 08:44:00 -0700\", \"id\": 24, \"name\": \"Tormatrix Limited\", \"resource_uri\": \"/api/v1/reseller/24/\", \"updated_at\": \"Tue, 12 Mar 2013 20:21:14 -0700\"}, {\"absolute_url\": \"/reseller/88/\", \"allow_branding\": false, \"allow_customer_branding\": false, \"branding_info\": \"/api/v1/brandinginfo/74/\", \"created_at\": \"Wed, 27 Feb 2013 04:08:52 -0800\", \"id\": 88, \"name\": \"Ten Plus\", \"resource_uri\": \"/api/v1/reseller/88/\", \"updated_at\": \"Tue, 12 Mar 2013 20:21:14 -0700\"}, {\"absolute_url\": \"/reseller/76/\", \"allow_branding\": false, \"allow_customer_branding\": false, \"branding_info\": \"/api/v1/brandinginfo/73/\", \"created_at\": \"Thu, 24 Jan 2013 00:54:23 -0800\", \"id\": 76, \"name\": \"TechSols\", \"resource_uri\": \"/api/v1/reseller/76/\", \"updated_at\": \"Tue, 12 Mar 2013 20:21:14 -0700\"}, {\"absolute_url\": \"/reseller/17/\", \"allow_branding\": false, \"allow_customer_branding\": false, \"branding_info\": \"/api/v1/brandinginfo/72/\", \"created_at\": \"Thu, 7 Jun 2012 08:34:38 -0700\", \"id\": 17, \"name\": \"Technically Advanced Solutions Pty Ltd\", \"resource_uri\": \"/api/v1/reseller/17/\", \"updated_at\": \"Tue, 12 Mar 2013 20:21:14 -0700\"}, {\"absolute_url\": \"/reseller/44/\", \"allow_branding\": false, \"allow_customer_branding\": false, \"branding_info\": \"/api/v1/brandinginfo/71/\", \"created_at\": \"Thu, 2 Aug 2012 09:09:41 -0700\", \"id\": 44, \"name\": \"Tech Labs Pty Ltd\", \"resource_uri\": \"/api/v1/reseller/44/\", \"updated_at\": \"Tue, 12 Mar 2013 20:21:14 -0700\"}, {\"absolute_url\": \"/reseller/34/\", \"allow_branding\": false, \"allow_customer_branding\": false, \"branding_info\": \"/api/v1/brandinginfo/70/\", \"created_at\": \"Thu, 7 Jun 2012 09:34:36 -0700\", \"id\": 34, \"name\": \"Systems Analysis Services Inc.\", \"resource_uri\": \"/api/v1/reseller/34/\", \"updated_at\": \"Tue, 12 Mar 2013 20:21:14 -0700\"}, {\"absolute_url\": \"/reseller/19/\", \"allow_branding\": false, \"allow_customer_branding\": false, \"branding_info\": \"/api/v1/brandinginfo/69/\", \"created_at\": \"Thu, 7 Jun 2012 08:36:11 -0700\", \"id\": 19, \"name\": \"Shivvers.net\", \"resource_uri\": \"/api/v1/reseller/19/\", \"updated_at\": \"Tue, 12 Mar 2013 20:21:14 -0700\"}, {\"absolute_url\": \"/reseller/77/\", \"allow_branding\": false, \"allow_customer_branding\": false, \"branding_info\": \"/api/v1/brandinginfo/68/\", \"created_at\": \"Thu, 24 Jan 2013 02:41:46 -0800\", \"id\": 77, \"name\": \"Semper Victus\", \"resource_uri\": \"/api/v1/reseller/77/\", \"updated_at\": \"Tue, 12 Mar 2013 20:21:14 -0700\"}, {\"absolute_url\": \"/reseller/45/\", \"allow_branding\": false, \"allow_customer_branding\": false, \"branding_info\": \"/api/v1/brandinginfo/67/\", \"created_at\": \"Fri, 10 Aug 2012 03:45:07 -0700\", \"id\": 45, \"name\": \"Scott Florence\", \"resource_uri\": \"/api/v1/reseller/45/\", \"updated_at\": \"Tue, 12 Mar 2013 20:21:14 -0700\"}, {\"absolute_url\": \"/reseller/25/\", \"allow_branding\": false, \"allow_customer_branding\": false, \"branding_info\": \"/api/v1/brandinginfo/66/\", \"created_at\": \"Thu, 7 Jun 2012 08:45:39 -0700\", \"id\": 25, \"name\": \"Sax Network\", \"resource_uri\": \"/api/v1/reseller/25/\", \"updated_at\": \"Tue, 12 Mar 2013 20:21:14 -0700\"}, {\"absolute_url\": \"/reseller/60/\", \"allow_branding\": false, \"allow_customer_branding\": false, \"branding_info\": \"/api/v1/brandinginfo/65/\", \"created_at\": \"Tue, 4 Dec 2012 02:01:24 -0800\", \"id\": 60, \"name\": \"saguarotech.com\", \"resource_uri\": \"/api/v1/reseller/60/\", \"updated_at\": \"Tue, 12 Mar 2013 20:21:14 -0700\"}, {\"absolute_url\": \"/reseller/59/\", \"allow_branding\": false, \"allow_customer_branding\": false, \"branding_info\": \"/api/v1/brandinginfo/64/\", \"created_at\": \"Sun, 2 Dec 2012 07:38:05 -0800\", \"id\": 59, \"name\": \"ResellerName, Inc.\", \"resource_uri\": \"/api/v1/reseller/59/\", \"updated_at\": \"Tue, 12 Mar 2013 20:21:14 -0700\"}]}"
    http_version: 
  recorded_at: Sat, 16 Mar 2013 14:17:15 GMT
