--- 
recorded_with: VCR 2.4.0
http_interactions: 
- request: 
    method: get
    uri: https://admin-dev.mailroute.net/api/v1/reseller/
    body: 
      string: ""
    headers: 
      Accept: 
      - application/json
      Accept-Encoding: 
      - identity
      Authorization: 
      - ApiKey blablablablabla@example.com:5f64xxxxxxxxxxxxxxxxxxxxxxxxxxxxxxxx8262
  response: 
    status: 
      code: 200
      message: OK
    headers: 
      Server: 
      - nginx/1.2.1
      Cache-Control: 
      - no-cache
      Connection: 
      - keep-alive
      Vary: 
      - Accept, Cookie
      - Accept-Encoding
      Content-Type: 
      - application/json; charset=utf-8
      Date: 
      - Wed, 27 Feb 2013 14:09:00 GMT
      Transfer-Encoding: 
      - chunked
    body: 
      string: "{\"meta\": {\"limit\": 20, \"next\": \"/api/v1/reseller/?limit=20&offset=20\", \"offset\": 0, \"previous\": null, \"total_count\": 122}, \"objects\": [{\"absolute_url\": \"/reseller/434/\", \"allow_branding\": false, \"allow_customer_branding\": false, \"branding_info\": \"/api/v1/brandinginfo/1892/\", \"created_at\": \"Wed, 27 Feb 2013 05:57:31 -0800\", \"id\": 434, \"name\": \"b12090af97c2d1f2cb4cb70806362e03\", \"resource_uri\": \"/api/v1/reseller/434/\", \"updated_at\": \"Wed, 27 Feb 2013 05:57:31 -0800\"}, {\"absolute_url\": \"/reseller/179/\", \"allow_branding\": false, \"allow_customer_branding\": false, \"branding_info\": \"/api/v1/brandinginfo/1585/\", \"created_at\": \"Sun, 24 Feb 2013 06:05:40 -0800\", \"id\": 179, \"name\": \"b3a07c1594d52d6eb2e5c7b36322cb7c\", \"resource_uri\": \"/api/v1/reseller/179/\", \"updated_at\": \"Sun, 24 Feb 2013 06:05:40 -0800\"}, {\"absolute_url\": \"/reseller/276/\", \"allow_branding\": false, \"allow_customer_branding\": false, \"branding_info\": \"/api/v1/brandinginfo/1696/\", \"created_at\": \"Tue, 26 Feb 2013 09:41:59 -0800\", \"id\": 276, \"name\": \"b3a740d262bd59046de445a700a621cf\", \"resource_uri\": \"/api/v1/reseller/276/\", \"updated_at\": \"Tue, 26 Feb 2013 09:41:59 -0800\"}, {\"absolute_url\": \"/reseller/175/\", \"allow_branding\": false, \"allow_customer_branding\": false, \"branding_info\": \"/api/v1/brandinginfo/1581/\", \"created_at\": \"Sun, 24 Feb 2013 06:03:48 -0800\", \"id\": 175, \"name\": \"b7001333b77359eff8cdf90726eee4fd\", \"resource_uri\": \"/api/v1/reseller/175/\", \"updated_at\": \"Sun, 24 Feb 2013 06:03:48 -0800\"}, {\"absolute_url\": \"/reseller/271/\", \"allow_branding\": false, \"allow_customer_branding\": false, \"branding_info\": \"/api/v1/brandinginfo/1684/\", \"created_at\": \"Tue, 26 Feb 2013 04:43:54 -0800\", \"id\": 271, \"name\": \"b700e85a076bef81723111fb2037f3d5\", \"resource_uri\": \"/api/v1/reseller/271/\", \"updated_at\": \"Tue, 26 Feb 2013 04:43:54 -0800\"}, {\"absolute_url\": \"/reseller/107/\", \"allow_branding\": false, \"allow_customer_branding\": false, \"branding_info\": \"/api/v1/brandinginfo/1513/\", \"created_at\": \"Sat, 23 Feb 2013 12:58:28 -0800\", \"id\": 107, \"name\": \"b99ba07ed6dab53a6b04fc99aee20edd\", \"resource_uri\": \"/api/v1/reseller/107/\", \"updated_at\": \"Sat, 23 Feb 2013 12:58:30 -0800\"}, {\"absolute_url\": \"/reseller/292/\", \"allow_branding\": false, \"allow_customer_branding\": false, \"branding_info\": \"/api/v1/brandinginfo/1713/\", \"created_at\": \"Tue, 26 Feb 2013 13:32:43 -0800\", \"id\": 292, \"name\": \"ba5317347e9a01f4b510f39a3e70f407\", \"resource_uri\": \"/api/v1/reseller/292/\", \"updated_at\": \"Tue, 26 Feb 2013 13:32:43 -0800\"}, {\"absolute_url\": \"/reseller/97/\", \"allow_branding\": false, \"allow_customer_branding\": false, \"branding_info\": \"/api/v1/brandinginfo/1503/\", \"created_at\": \"Sat, 23 Feb 2013 11:55:17 -0800\", \"id\": 97, \"name\": \"bc191154c33992ea4fa86156528b2e3d\", \"resource_uri\": \"/api/v1/reseller/97/\", \"updated_at\": \"Sat, 23 Feb 2013 11:55:17 -0800\"}, {\"absolute_url\": \"/reseller/62/\", \"allow_branding\": false, \"allow_customer_branding\": false, \"branding_info\": \"/api/v1/brandinginfo/8/\", \"created_at\": \"Thu, 13 Dec 2012 08:45:11 -0800\", \"id\": 62, \"name\": \"BCG Canada Inc.\", \"resource_uri\": \"/api/v1/reseller/62/\", \"updated_at\": \"Fri, 22 Feb 2013 15:29:19 -0800\"}, {\"absolute_url\": \"/reseller/205/\", \"allow_branding\": false, \"allow_customer_branding\": false, \"branding_info\": \"/api/v1/brandinginfo/1611/\", \"created_at\": \"Sun, 24 Feb 2013 06:22:32 -0800\", \"id\": 205, \"name\": \"bdf68a3fde12ba23314762aa305b5ec1\", \"resource_uri\": \"/api/v1/reseller/205/\", \"updated_at\": \"Sun, 24 Feb 2013 06:22:32 -0800\"}, {\"absolute_url\": \"/reseller/101/\", \"allow_branding\": false, \"allow_customer_branding\": false, \"branding_info\": \"/api/v1/brandinginfo/1507/\", \"created_at\": \"Sat, 23 Feb 2013 12:10:07 -0800\", \"id\": 101, \"name\": \"bea56460c98fb7a662a96274bd48d147\", \"resource_uri\": \"/api/v1/reseller/101/\", \"updated_at\": \"Sat, 23 Feb 2013 12:10:07 -0800\"}, {\"absolute_url\": \"/reseller/46/\", \"allow_branding\": false, \"allow_customer_branding\": false, \"branding_info\": \"/api/v1/brandinginfo/9/\", \"created_at\": \"Wed, 15 Aug 2012 12:54:40 -0700\", \"id\": 46, \"name\": \"BrainStomp, Inc.\", \"resource_uri\": \"/api/v1/reseller/46/\", \"updated_at\": \"Fri, 22 Feb 2013 15:29:19 -0800\"}, {\"absolute_url\": \"/reseller/13/\", \"allow_branding\": false, \"allow_customer_branding\": false, \"branding_info\": \"/api/v1/brandinginfo/10/\", \"created_at\": \"Thu, 7 Jun 2012 15:29:27 -0700\", \"id\": 13, \"name\": \"Business Technology Solutions Inc.\", \"resource_uri\": \"/api/v1/reseller/13/\", \"updated_at\": \"Fri, 22 Feb 2013 15:29:19 -0800\"}, {\"absolute_url\": \"/reseller/256/\", \"allow_branding\": false, \"allow_customer_branding\": false, \"branding_info\": \"/api/v1/brandinginfo/1666/\", \"created_at\": \"Tue, 26 Feb 2013 04:32:16 -0800\", \"id\": 256, \"name\": \"c2f1e56d8b60dc7a28ba139e805c2f56\", \"resource_uri\": \"/api/v1/reseller/256/\", \"updated_at\": \"Tue, 26 Feb 2013 04:32:16 -0800\"}, {\"absolute_url\": \"/reseller/439/\", \"allow_branding\": false, \"allow_customer_branding\": false, \"branding_info\": \"/api/v1/brandinginfo/1897/\", \"created_at\": \"Wed, 27 Feb 2013 06:03:20 -0800\", \"id\": 439, \"name\": \"c33f2402fc22eeb14c2f457852059fc2\", \"resource_uri\": \"/api/v1/reseller/439/\", \"updated_at\": \"Wed, 27 Feb 2013 06:03:20 -0800\"}, {\"absolute_url\": \"/reseller/47/\", \"allow_branding\": false, \"allow_customer_branding\": false, \"branding_info\": \"/api/v1/brandinginfo/11/\", \"created_at\": \"Wed, 5 Sep 2012 10:43:10 -0700\", \"id\": 47, \"name\": \"Celera It Services\", \"resource_uri\": \"/api/v1/reseller/47/\", \"updated_at\": \"Sun, 24 Feb 2013 04:57:20 -0800\"}, {\"absolute_url\": \"/reseller/50/\", \"allow_branding\": false, \"allow_customer_branding\": false, \"branding_info\": \"/api/v1/brandinginfo/12/\", \"created_at\": \"Wed, 19 Sep 2012 09:34:52 -0700\", \"id\": 50, \"name\": \"Centurion Data Systems\", \"resource_uri\": \"/api/v1/reseller/50/\", \"updated_at\": \"Fri, 22 Feb 2013 15:29:19 -0800\"}, {\"absolute_url\": \"/reseller/85/\", \"allow_branding\": false, \"allow_customer_branding\": false, \"branding_info\": \"/api/v1/brandinginfo/13/\", \"created_at\": \"Thu, 21 Feb 2013 11:46:30 -0800\", \"id\": 85, \"name\": \"Certified Computer Solutions\", \"resource_uri\": \"/api/v1/reseller/85/\", \"updated_at\": \"Fri, 22 Feb 2013 15:29:19 -0800\"}, {\"absolute_url\": \"/reseller/54/\", \"allow_branding\": false, \"allow_customer_branding\": false, \"branding_info\": \"/api/v1/brandinginfo/14/\", \"created_at\": \"Thu, 1 Nov 2012 14:09:50 -0700\", \"id\": 54, \"name\": \"CommuniGate Systems\", \"resource_uri\": \"/api/v1/reseller/54/\", \"updated_at\": \"Fri, 22 Feb 2013 15:29:19 -0800\"}, {\"absolute_url\": \"/reseller/8/\", \"allow_branding\": false, \"allow_customer_branding\": false, \"branding_info\": \"/api/v1/brandinginfo/15/\", \"created_at\": \"Thu, 7 Jun 2012 15:27:07 -0700\", \"id\": 8, \"name\": \"Consulting Interactive/ Shivvers\", \"resource_uri\": \"/api/v1/reseller/8/\", \"updated_at\": \"Fri, 22 Feb 2013 15:29:19 -0800\"}]}"
    http_version: 
  recorded_at: Wed, 27 Feb 2013 14:09:00 GMT
- request: 
    method: get
    uri: https://admin-dev.mailroute.net/api/v1/reseller/279/
    body: 
      string: ""
    headers: 
      Accept: 
      - application/json
      Accept-Encoding: 
      - identity
      Authorization: 
      - ApiKey blablablablabla@example.com:5f64xxxxxxxxxxxxxxxxxxxxxxxxxxxxxxxx8262
  response: 
    status: 
      code: 404
      message: NOT FOUND
    headers: 
      Server: 
      - nginx/1.2.1
      Connection: 
      - keep-alive
      Vary: 
      - Accept, Cookie
      - Accept-Encoding
      Content-Type: 
      - text/html; charset=utf-8
      Date: 
      - Wed, 27 Feb 2013 14:09:01 GMT
      Transfer-Encoding: 
      - chunked
    body: 
      string: ""
    http_version: 
  recorded_at: Wed, 27 Feb 2013 14:09:01 GMT
