--- 
recorded_with: VCR 2.4.0
http_interactions: 
- request: 
    method: get
    uri: https://admin-dev.mailroute.net/api/v1/domain/4555/
    body: 
      string: ""
    headers: 
      Accept: 
      - application/json
      Accept-Encoding: 
      - identity
      Authorization: 
      - ApiKey blablablablabla@example.com:5f64xxxxxxxxxxxxxxxxxxxxxxxxxxxxxxxx8262
      User-Agent: 
      - Ruby
  response: 
    status: 
      code: 200
      message: OK
    headers: 
      Server: 
      - nginx/1.2.6
      Connection: 
      - keep-alive
      Vary: 
      - Accept, Cookie
      - Accept-Encoding
      Cache-Control: 
      - no-cache
      Content-Type: 
      - application/json; charset=utf-8
      Date: 
      - Fri, 29 Mar 2013 18:57:38 GMT
      Transfer-Encoding: 
      - chunked
    body: 
      string: "{\"absolute_url\": \"/domain/4555/\", \"active\": true, \"created_at\": \"Thu, 21 Mar 2013 11:39:31 -0700\", \"customer\": \"/api/v1/customer/2341/\", \"deliveryport\": 25, \"hold_email\": false, \"id\": 4555, \"name\": \"apapap.example.com\", \"notification_task\": \"/api/v1/notification_domain_task/57818/\", \"outbound_enabled\": false, \"policy\": \"/api/v1/policy_domain/57885/\", \"resource_uri\": \"/api/v1/domain/4555/\", \"updated_at\": \"Fri, 29 Mar 2013 11:45:50 -0700\", \"userlist_complete\": false}"
    http_version: 
  recorded_at: Fri, 29 Mar 2013 18:57:38 GMT
- request: 
    method: post
    uri: https://admin-dev.mailroute.net/api/v1/outbound_server/
    body: 
      string: "{\"domain\":\"/api/v1/domain/4555/\",\"server\":\"127.0.0.2\"}"
    headers: 
      Accept: 
      - "*/*"
      Accept-Encoding: 
      - identity
      Content-Type: 
      - application/json
      Authorization: 
      - ApiKey blablablablabla@example.com:5f64xxxxxxxxxxxxxxxxxxxxxxxxxxxxxxxx8262
      User-Agent: 
      - Ruby
  response: 
    status: 
      code: 201
      message: CREATED
    headers: 
      Server: 
      - nginx/1.2.6
      Connection: 
      - keep-alive
      Vary: 
      - Accept, Cookie
      Content-Type: 
      - application/json; charset=utf-8
      Date: 
      - Fri, 29 Mar 2013 18:57:40 GMT
      Location: 
      - https://admin-dev.mailroute.net/api/v1/outbound_server/828/
      Transfer-Encoding: 
      - chunked
    body: 
      string: "{\"created_at\": \"Fri, 29 Mar 2013 11:57:40 -0700\", \"domain\": \"/api/v1/domain/4555/\", \"id\": 828, \"resource_uri\": \"/api/v1/outbound_server/828/\", \"server\": \"127.0.0.2\", \"updated_at\": \"Fri, 29 Mar 2013 11:57:40 -0700\"}"
    http_version: 
  recorded_at: Fri, 29 Mar 2013 18:57:40 GMT
- request: 
    method: get
    uri: https://admin-dev.mailroute.net/api/v1/outbound_server/?domain=4555
    body: 
      string: ""
    headers: 
      Accept: 
      - application/json
      Accept-Encoding: 
      - identity
      Authorization: 
      - ApiKey blablablablabla@example.com:5f64xxxxxxxxxxxxxxxxxxxxxxxxxxxxxxxx8262
      User-Agent: 
      - Ruby
  response: 
    status: 
      code: 200
      message: OK
    headers: 
      Server: 
      - nginx/1.2.6
      Connection: 
      - keep-alive
      Vary: 
      - Accept, Cookie
      - Accept-Encoding
      Cache-Control: 
      - no-cache
      Content-Type: 
      - application/json; charset=utf-8
      Date: 
      - Fri, 29 Mar 2013 18:57:41 GMT
      Transfer-Encoding: 
      - chunked
    body: 
      string: "{\"meta\": {\"limit\": 20, \"next\": null, \"offset\": 0, \"previous\": null, \"total_count\": 1}, \"objects\": [{\"created_at\": \"Fri, 29 Mar 2013 11:57:40 -0700\", \"domain\": \"/api/v1/domain/4555/\", \"id\": 828, \"resource_uri\": \"/api/v1/outbound_server/828/\", \"server\": \"127.0.0.2\", \"updated_at\": \"Fri, 29 Mar 2013 11:57:40 -0700\"}]}"
    http_version: 
  recorded_at: Fri, 29 Mar 2013 18:57:41 GMT
- request: 
    method: delete
    uri: https://admin-dev.mailroute.net/api/v1/outbound_server/828/
    body: 
      string: ""
    headers: 
      Accept: 
      - application/json
      Accept-Encoding: 
      - identity
      Authorization: 
      - ApiKey blablablablabla@example.com:5f64xxxxxxxxxxxxxxxxxxxxxxxxxxxxxxxx8262
      User-Agent: 
      - Ruby
  response: 
    status: 
      code: 204
      message: NO CONTENT
    headers: 
      Server: 
      - nginx/1.2.6
      Connection: 
      - keep-alive
      Vary: 
      - Accept, Cookie
      Content-Length: 
      - "0"
      Content-Type: 
      - text/html; charset=utf-8
      Date: 
      - Fri, 29 Mar 2013 18:57:42 GMT
    body: 
      string: ""
    http_version: 
  recorded_at: Fri, 29 Mar 2013 18:57:42 GMT
- request: 
    method: get
    uri: https://admin-dev.mailroute.net/api/v1/outbound_server/?domain=4555
    body: 
      string: ""
    headers: 
      Accept: 
      - application/json
      Accept-Encoding: 
      - identity
      Authorization: 
      - ApiKey blablablablabla@example.com:5f64xxxxxxxxxxxxxxxxxxxxxxxxxxxxxxxx8262
      User-Agent: 
      - Ruby
  response: 
    status: 
      code: 200
      message: OK
    headers: 
      Server: 
      - nginx/1.2.6
      Connection: 
      - keep-alive
      Vary: 
      - Accept, Cookie
      - Accept-Encoding
      Cache-Control: 
      - no-cache
      Content-Type: 
      - application/json; charset=utf-8
      Date: 
      - Fri, 29 Mar 2013 18:57:43 GMT
      Transfer-Encoding: 
      - chunked
    body: 
      string: "{\"meta\": {\"limit\": 20, \"next\": null, \"offset\": 0, \"previous\": null, \"total_count\": 0}, \"objects\": []}"
    http_version: 
  recorded_at: Fri, 29 Mar 2013 18:57:43 GMT
- request: 
    method: get
    uri: https://admin-dev.mailroute.net/api/v1/outbound_server/
    body: 
      string: ""
    headers: 
      Accept: 
      - application/json
      Accept-Encoding: 
      - identity
      Authorization: 
      - ApiKey blablablablabla@example.com:5f64xxxxxxxxxxxxxxxxxxxxxxxxxxxxxxxx8262
      User-Agent: 
      - Ruby
  response: 
    status: 
      code: 200
      message: OK
    headers: 
      Server: 
      - nginx/1.2.6
      Connection: 
      - keep-alive
      Vary: 
      - Accept, Cookie
      - Accept-Encoding
      Cache-Control: 
      - no-cache
      Content-Type: 
      - application/json; charset=utf-8
      Date: 
      - Fri, 29 Mar 2013 18:57:44 GMT
      Transfer-Encoding: 
      - chunked
    body: 
      string: "{\"meta\": {\"limit\": 20, \"next\": \"/api/v1/outbound_server/?limit=20&offset=20\", \"offset\": 0, \"previous\": null, \"total_count\": 638}, \"objects\": [{\"created_at\": \"Tue, 4 Dec 2012 05:18:49 -0800\", \"domain\": \"/api/v1/domain/3303/\", \"id\": 644, \"resource_uri\": \"/api/v1/outbound_server/644/\", \"server\": \"1.2.3.4\", \"updated_at\": \"Tue, 4 Dec 2012 05:18:49 -0800\"}, {\"created_at\": \"Mon, 18 Mar 2013 10:54:47 -0700\", \"domain\": \"/api/v1/domain/4554/\", \"id\": 827, \"resource_uri\": \"/api/v1/outbound_server/827/\", \"server\": \"10.11.12.13\", \"updated_at\": \"Mon, 18 Mar 2013 10:54:47 -0700\"}, {\"created_at\": \"Fri, 28 Sep 2012 01:48:53 -0700\", \"domain\": \"/api/v1/domain/3304/\", \"id\": 550, \"resource_uri\": \"/api/v1/outbound_server/550/\", \"server\": \"100.42.57.151\", \"updated_at\": \"Fri, 28 Sep 2012 01:48:53 -0700\"}, {\"created_at\": \"Thu, 7 Jun 2012 09:26:08 -0700\", \"domain\": \"/api/v1/domain/1202/\", \"id\": 241, \"resource_uri\": \"/api/v1/outbound_server/241/\", \"server\": \"107.0.39.130\", \"updated_at\": \"Thu, 7 Jun 2012 09:26:08 -0700\"}, {\"created_at\": \"Thu, 7 Jun 2012 09:23:48 -0700\", \"domain\": \"/api/v1/domain/1163/\", \"id\": 213, \"resource_uri\": \"/api/v1/outbound_server/213/\", \"server\": \"107.0.39.130\", \"updated_at\": \"Thu, 7 Jun 2012 09:23:48 -0700\"}, {\"created_at\": \"Sun, 6 Jan 2013 08:53:48 -0800\", \"domain\": \"/api/v1/domain/3606/\", \"id\": 710, \"resource_uri\": \"/api/v1/outbound_server/710/\", \"server\": \"107.204.137.210\", \"updated_at\": \"Sun, 6 Jan 2013 08:53:48 -0800\"}, {\"created_at\": \"Tue, 20 Nov 2012 04:36:27 -0800\", \"domain\": \"/api/v1/domain/3221/\", \"id\": 626, \"resource_uri\": \"/api/v1/outbound_server/626/\", \"server\": \"107.7.169.226\", \"updated_at\": \"Tue, 20 Nov 2012 04:36:27 -0800\"}, {\"created_at\": \"Fri, 15 Jun 2012 02:33:39 -0700\", \"domain\": \"/api/v1/domain/1899/\", \"id\": 464, \"resource_uri\": \"/api/v1/outbound_server/464/\", \"server\": \"108.0.112.66\", \"updated_at\": \"Fri, 15 Jun 2012 02:33:39 -0700\"}, {\"created_at\": \"Thu, 13 Dec 2012 01:03:51 -0800\", \"domain\": \"/api/v1/domain/1770/\", \"id\": 661, \"resource_uri\": \"/api/v1/outbound_server/661/\", \"server\": \"108.166.83.69\", \"updated_at\": \"Thu, 13 Dec 2012 01:03:51 -0800\"}, {\"created_at\": \"Thu, 13 Dec 2012 01:01:46 -0800\", \"domain\": \"/api/v1/domain/3240/\", \"id\": 658, \"resource_uri\": \"/api/v1/outbound_server/658/\", \"server\": \"108.166.83.69\", \"updated_at\": \"Thu, 13 Dec 2012 01:01:46 -0800\"}, {\"created_at\": \"Thu, 13 Dec 2012 01:00:30 -0800\", \"domain\": \"/api/v1/domain/3487/\", \"id\": 657, \"resource_uri\": \"/api/v1/outbound_server/657/\", \"server\": \"108.166.83.69\", \"updated_at\": \"Thu, 13 Dec 2012 01:00:30 -0800\"}, {\"created_at\": \"Thu, 13 Dec 2012 01:00:00 -0800\", \"domain\": \"/api/v1/domain/118/\", \"id\": 656, \"resource_uri\": \"/api/v1/outbound_server/656/\", \"server\": \"108.166.83.69\", \"updated_at\": \"Thu, 13 Dec 2012 01:00:00 -0800\"}, {\"created_at\": \"Thu, 13 Dec 2012 01:02:21 -0800\", \"domain\": \"/api/v1/domain/2036/\", \"id\": 659, \"resource_uri\": \"/api/v1/outbound_server/659/\", \"server\": \"108.166.83.69\", \"updated_at\": \"Thu, 13 Dec 2012 01:02:21 -0800\"}, {\"created_at\": \"Thu, 13 Dec 2012 01:03:00 -0800\", \"domain\": \"/api/v1/domain/3464/\", \"id\": 660, \"resource_uri\": \"/api/v1/outbound_server/660/\", \"server\": \"108.166.83.69\", \"updated_at\": \"Thu, 13 Dec 2012 01:03:00 -0800\"}, {\"created_at\": \"Thu, 7 Jun 2012 09:31:46 -0700\", \"domain\": \"/api/v1/domain/1286/\", \"id\": 254, \"resource_uri\": \"/api/v1/outbound_server/254/\", \"server\": \"108.220.208.1\", \"updated_at\": \"Thu, 7 Jun 2012 09:31:46 -0700\"}, {\"created_at\": \"Mon, 25 Feb 2013 23:03:32 -0800\", \"domain\": \"/api/v1/domain/3792/\", \"id\": 791, \"resource_uri\": \"/api/v1/outbound_server/791/\", \"server\": \"108.221.243.132\", \"updated_at\": \"Mon, 25 Feb 2013 23:03:32 -0800\"}, {\"created_at\": \"Mon, 25 Feb 2013 22:56:44 -0800\", \"domain\": \"/api/v1/domain/3792/\", \"id\": 789, \"resource_uri\": \"/api/v1/outbound_server/789/\", \"server\": \"108.221.243.137\", \"updated_at\": \"Mon, 25 Feb 2013 22:56:45 -0800\"}, {\"created_at\": \"Mon, 27 Aug 2012 03:53:46 -0700\", \"domain\": \"/api/v1/domain/1444/\", \"id\": 523, \"resource_uri\": \"/api/v1/outbound_server/523/\", \"server\": \"108.89.79.202\", \"updated_at\": \"Mon, 27 Aug 2012 03:53:46 -0700\"}, {\"created_at\": \"Thu, 7 Jun 2012 08:31:35 -0700\", \"domain\": \"/api/v1/domain/168/\", \"id\": 34, \"resource_uri\": \"/api/v1/outbound_server/34/\", \"server\": \"109.247.51.98\", \"updated_at\": \"Thu, 7 Jun 2012 08:31:35 -0700\"}, {\"created_at\": \"Thu, 7 Jun 2012 08:29:03 -0700\", \"domain\": \"/api/v1/domain/101/\", \"id\": 26, \"resource_uri\": \"/api/v1/outbound_server/26/\", \"server\": \"109.247.51.98\", \"updated_at\": \"Thu, 7 Jun 2012 08:29:03 -0700\"}]}"
    http_version: 
  recorded_at: Fri, 29 Mar 2013 18:57:44 GMT
