--- 
recorded_with: VCR 2.4.0
http_interactions: 
- request: 
    method: get
    uri: https://admin-dev.mailroute.net/api/v1/customer/?name__startswith=A
    body: 
      string: ""
    headers: 
      Accept: 
      - application/json
      Accept-Encoding: 
      - identity
      Authorization: 
      - ApiKey blablablablabla@example.com:5f64xxxxxxxxxxxxxxxxxxxxxxxxxxxxxxxx8262
      User-Agent: 
      - Ruby
  response: 
    status: 
      code: 200
      message: OK
    headers: 
      Server: 
      - nginx/1.2.6
      Connection: 
      - keep-alive
      Vary: 
      - Accept, Cookie
      - Accept-Encoding
      Cache-Control: 
      - no-cache
      Content-Type: 
      - application/json; charset=utf-8
      Date: 
      - Sat, 16 Mar 2013 16:20:21 GMT
      Transfer-Encoding: 
      - chunked
    body: 
      string: "{\"meta\": {\"limit\": 20, \"next\": \"/api/v1/customer/?name__startswith=A&limit=20&offset=20\", \"offset\": 0, \"previous\": null, \"total_count\": 98}, \"objects\": [{\"absolute_url\": \"/customer/2099/\", \"allow_branding\": false, \"branding_info\": \"/api/v1/brandinginfo/92/\", \"created_at\": \"Wed, 6 Mar 2013 06:46:14 -0800\", \"id\": 2099, \"is_full_user_list\": false, \"name\": \"A Broader View\", \"reported_user_count\": null, \"reseller\": \"/api/v1/reseller/86/\", \"resource_uri\": \"/api/v1/customer/2099/\", \"updated_at\": \"Tue, 12 Mar 2013 20:21:14 -0700\"}, {\"absolute_url\": \"/customer/2341/\", \"allow_branding\": false, \"branding_info\": \"/api/v1/brandinginfo/2135/\", \"created_at\": \"Sat, 16 Mar 2013 08:18:30 -0700\", \"id\": 2341, \"is_full_user_list\": false, \"name\": \"A New Customer\", \"reported_user_count\": null, \"reseller\": \"/api/v1/reseller/4/\", \"resource_uri\": \"/api/v1/customer/2341/\", \"updated_at\": \"Sat, 16 Mar 2013 08:18:30 -0700\"}, {\"absolute_url\": \"/customer/34/\", \"allow_branding\": false, \"branding_info\": \"/api/v1/brandinginfo/93/\", \"created_at\": \"Thu, 7 Jun 2012 08:25:54 -0700\", \"id\": 34, \"is_full_user_list\": false, \"name\": \"A&E Tax Service\", \"reported_user_count\": null, \"reseller\": \"/api/v1/reseller/1/\", \"resource_uri\": \"/api/v1/customer/34/\", \"updated_at\": \"Tue, 12 Mar 2013 20:21:14 -0700\"}, {\"absolute_url\": \"/customer/1838/\", \"allow_branding\": false, \"branding_info\": \"/api/v1/brandinginfo/95/\", \"created_at\": \"Wed, 6 Mar 2013 06:39:49 -0800\", \"id\": 1838, \"is_full_user_list\": false, \"name\": \"A2C Consulting\", \"reported_user_count\": null, \"reseller\": \"/api/v1/reseller/86/\", \"resource_uri\": \"/api/v1/customer/1838/\", \"updated_at\": \"Tue, 12 Mar 2013 20:21:14 -0700\"}, {\"absolute_url\": \"/customer/1286/\", \"allow_branding\": false, \"branding_info\": \"/api/v1/brandinginfo/96/\", \"created_at\": \"Thu, 18 Oct 2012 00:59:09 -0700\", \"id\": 1286, \"is_full_user_list\": false, \"name\": \"Aaabor\", \"reported_user_count\": null, \"reseller\": \"/api/v1/reseller/1/\", \"resource_uri\": \"/api/v1/customer/1286/\", \"updated_at\": \"Tue, 12 Mar 2013 20:21:14 -0700\"}, {\"absolute_url\": \"/customer/13/\", \"allow_branding\": false, \"branding_info\": \"/api/v1/brandinginfo/97/\", \"created_at\": \"Thu, 7 Jun 2012 08:24:57 -0700\", \"id\": 13, \"is_full_user_list\": false, \"name\": \"Aaron Cake\", \"reported_user_count\": null, \"reseller\": \"/api/v1/reseller/1/\", \"resource_uri\": \"/api/v1/customer/13/\", \"updated_at\": \"Tue, 12 Mar 2013 20:21:14 -0700\"}, {\"absolute_url\": \"/customer/15/\", \"allow_branding\": false, \"branding_info\": \"/api/v1/brandinginfo/98/\", \"created_at\": \"Thu, 7 Jun 2012 08:25:03 -0700\", \"id\": 15, \"is_full_user_list\": false, \"name\": \"Abaco Insurance\", \"reported_user_count\": null, \"reseller\": \"/api/v1/reseller/1/\", \"resource_uri\": \"/api/v1/customer/15/\", \"updated_at\": \"Tue, 12 Mar 2013 20:21:14 -0700\"}, {\"absolute_url\": \"/customer/16/\", \"allow_branding\": false, \"branding_info\": \"/api/v1/brandinginfo/99/\", \"created_at\": \"Thu, 7 Jun 2012 08:25:04 -0700\", \"id\": 16, \"is_full_user_list\": false, \"name\": \"ABC Law\", \"reported_user_count\": null, \"reseller\": \"/api/v1/reseller/1/\", \"resource_uri\": \"/api/v1/customer/16/\", \"updated_at\": \"Tue, 12 Mar 2013 20:21:14 -0700\"}, {\"absolute_url\": \"/customer/1865/\", \"allow_branding\": false, \"branding_info\": \"/api/v1/brandinginfo/102/\", \"created_at\": \"Wed, 6 Mar 2013 06:40:26 -0800\", \"id\": 1865, \"is_full_user_list\": false, \"name\": \"Access Hardware\", \"reported_user_count\": null, \"reseller\": \"/api/v1/reseller/86/\", \"resource_uri\": \"/api/v1/customer/1865/\", \"updated_at\": \"Tue, 12 Mar 2013 20:21:14 -0700\"}, {\"absolute_url\": \"/customer/1570/\", \"allow_branding\": false, \"branding_info\": \"/api/v1/brandinginfo/103/\", \"created_at\": \"Wed, 30 Jan 2013 05:09:38 -0800\", \"id\": 1570, \"is_full_user_list\": false, \"name\": \"Accountants Edge Software Solutions\", \"reported_user_count\": null, \"reseller\": \"/api/v1/reseller/21/\", \"resource_uri\": \"/api/v1/customer/1570/\", \"updated_at\": \"Tue, 12 Mar 2013 20:21:14 -0700\"}, {\"absolute_url\": \"/customer/20/\", \"allow_branding\": false, \"branding_info\": \"/api/v1/brandinginfo/104/\", \"created_at\": \"Thu, 7 Jun 2012 08:25:21 -0700\", \"id\": 20, \"is_full_user_list\": false, \"name\": \"ACG Los Angeles\", \"reported_user_count\": null, \"reseller\": \"/api/v1/reseller/2/\", \"resource_uri\": \"/api/v1/customer/20/\", \"updated_at\": \"Tue, 12 Mar 2013 20:21:14 -0700\"}, {\"absolute_url\": \"/customer/1221/\", \"allow_branding\": false, \"branding_info\": \"/api/v1/brandinginfo/105/\", \"created_at\": \"Sat, 15 Sep 2012 07:23:30 -0700\", \"id\": 1221, \"is_full_user_list\": false, \"name\": \"ACGLA Conference\", \"reported_user_count\": null, \"reseller\": \"/api/v1/reseller/2/\", \"resource_uri\": \"/api/v1/customer/1221/\", \"updated_at\": \"Tue, 12 Mar 2013 20:21:14 -0700\"}, {\"absolute_url\": \"/customer/23/\", \"allow_branding\": false, \"branding_info\": \"/api/v1/brandinginfo/107/\", \"created_at\": \"Thu, 7 Jun 2012 08:25:35 -0700\", \"id\": 23, \"is_full_user_list\": false, \"name\": \"ACI Insure\", \"reported_user_count\": null, \"reseller\": \"/api/v1/reseller/1/\", \"resource_uri\": \"/api/v1/customer/23/\", \"updated_at\": \"Tue, 12 Mar 2013 20:21:14 -0700\"}, {\"absolute_url\": \"/customer/1786/\", \"allow_branding\": false, \"branding_info\": \"/api/v1/brandinginfo/108/\", \"created_at\": \"Wed, 6 Mar 2013 06:38:39 -0800\", \"id\": 1786, \"is_full_user_list\": false, \"name\": \"Acme Development LLC\", \"reported_user_count\": null, \"reseller\": \"/api/v1/reseller/86/\", \"resource_uri\": \"/api/v1/customer/1786/\", \"updated_at\": \"Tue, 12 Mar 2013 20:21:14 -0700\"}, {\"absolute_url\": \"/customer/1866/\", \"allow_branding\": false, \"branding_info\": \"/api/v1/brandinginfo/109/\", \"created_at\": \"Wed, 6 Mar 2013 06:40:27 -0800\", \"id\": 1866, \"is_full_user_list\": false, \"name\": \"Acme Security\", \"reported_user_count\": null, \"reseller\": \"/api/v1/reseller/86/\", \"resource_uri\": \"/api/v1/customer/1866/\", \"updated_at\": \"Tue, 12 Mar 2013 20:21:14 -0700\"}, {\"absolute_url\": \"/customer/7/\", \"allow_branding\": false, \"branding_info\": \"/api/v1/brandinginfo/111/\", \"created_at\": \"Thu, 7 Jun 2012 08:24:41 -0700\", \"id\": 7, \"is_full_user_list\": false, \"name\": \"ACS Wireless\", \"reported_user_count\": null, \"reseller\": \"/api/v1/reseller/1/\", \"resource_uri\": \"/api/v1/customer/7/\", \"updated_at\": \"Tue, 12 Mar 2013 20:21:14 -0700\"}, {\"absolute_url\": \"/customer/27/\", \"allow_branding\": false, \"branding_info\": \"/api/v1/brandinginfo/112/\", \"created_at\": \"Thu, 7 Jun 2012 08:25:42 -0700\", \"id\": 27, \"is_full_user_list\": false, \"name\": \"ACWA\", \"reported_user_count\": null, \"reseller\": \"/api/v1/reseller/1/\", \"resource_uri\": \"/api/v1/customer/27/\", \"updated_at\": \"Tue, 12 Mar 2013 20:21:14 -0700\"}, {\"absolute_url\": \"/customer/544/\", \"allow_branding\": false, \"branding_info\": \"/api/v1/brandinginfo/113/\", \"created_at\": \"Thu, 7 Jun 2012 09:09:21 -0700\", \"id\": 544, \"is_full_user_list\": false, \"name\": \"Ad Tec, LLC\", \"reported_user_count\": null, \"reseller\": \"/api/v1/reseller/2/\", \"resource_uri\": \"/api/v1/customer/544/\", \"updated_at\": \"Tue, 12 Mar 2013 20:21:14 -0700\"}, {\"absolute_url\": \"/customer/1830/\", \"allow_branding\": false, \"branding_info\": \"/api/v1/brandinginfo/114/\", \"created_at\": \"Wed, 6 Mar 2013 06:39:39 -0800\", \"id\": 1830, \"is_full_user_list\": false, \"name\": \"Adair, Jordan\", \"reported_user_count\": null, \"reseller\": \"/api/v1/reseller/86/\", \"resource_uri\": \"/api/v1/customer/1830/\", \"updated_at\": \"Tue, 12 Mar 2013 20:21:14 -0700\"}, {\"absolute_url\": \"/customer/1039/\", \"allow_branding\": false, \"branding_info\": \"/api/v1/brandinginfo/115/\", \"created_at\": \"Thu, 7 Jun 2012 10:09:35 -0700\", \"id\": 1039, \"is_full_user_list\": false, \"name\": \"Adam Chandler\", \"reported_user_count\": null, \"reseller\": \"/api/v1/reseller/1/\", \"resource_uri\": \"/api/v1/customer/1039/\", \"updated_at\": \"Tue, 12 Mar 2013 20:21:14 -0700\"}]}"
    http_version: 
  recorded_at: Sat, 16 Mar 2013 16:20:21 GMT
