---
recorded_with: VCR 2.4.0
http_interactions:
- request:
    method: get
    uri: https://admin-dev.mailroute.net/api/v1/reseller/?limit=10
    body:
      string: ""
    headers:
      Accept:
      - application/json
      Authorization:
      - ApiKey blablablablabla@example.com:5f64xxxxxxxxxxxxxxxxxxxxxxxxxxxxxxxx8262
  response:
    status:
      code: 200
      message: OK
    headers:
      Date:
      - Wed, 27 Feb 2013 19:04:59 GMT
      Transfer-Encoding:
      - chunked
      Content-Type:
      - application/json; charset=utf-8
      Vary:
      - Accept, Cookie
      - Accept-Encoding
      Connection:
      - keep-alive
      Server:
      - nginx/1.2.1
      Cache-Control:
      - no-cache
    body:
      string: "{\"meta\": {\"limit\": 10, \"next\": \"/api/v1/reseller/?limit=10&offset=10\", \"offset\": 0, \"previous\": null, \"total_count\": 127}, \"objects\": [{\"absolute_url\": \"/reseller/205/\", \"allow_branding\": false, \"allow_customer_branding\": false, \"branding_info\": \"/api/v1/brandinginfo/1611/\", \"created_at\": \"Sun, 24 Feb 2013 06:22:32 -0800\", \"id\": 205, \"name\": \"bdf68a3fde12ba23314762aa305b5ec1\", \"resource_uri\": \"/api/v1/reseller/205/\", \"updated_at\": \"Sun, 24 Feb 2013 06:22:32 -0800\"}, {\"absolute_url\": \"/reseller/101/\", \"allow_branding\": false, \"allow_customer_branding\": false, \"branding_info\": \"/api/v1/brandinginfo/1507/\", \"created_at\": \"Sat, 23 Feb 2013 12:10:07 -0800\", \"id\": 101, \"name\": \"bea56460c98fb7a662a96274bd48d147\", \"resource_uri\": \"/api/v1/reseller/101/\", \"updated_at\": \"Sat, 23 Feb 2013 12:10:07 -0800\"}, {\"absolute_url\": \"/reseller/46/\", \"allow_branding\": false, \"allow_customer_branding\": false, \"branding_info\": \"/api/v1/brandinginfo/9/\", \"created_at\": \"Wed, 15 Aug 2012 12:54:40 -0700\", \"id\": 46, \"name\": \"BrainStomp, Inc.\", \"resource_uri\": \"/api/v1/reseller/46/\", \"updated_at\": \"Fri, 22 Feb 2013 15:29:19 -0800\"}, {\"absolute_url\": \"/reseller/13/\", \"allow_branding\": false, \"allow_customer_branding\": false, \"branding_info\": \"/api/v1/brandinginfo/10/\", \"created_at\": \"Thu, 7 Jun 2012 15:29:27 -0700\", \"id\": 13, \"name\": \"Business Technology Solutions Inc.\", \"resource_uri\": \"/api/v1/reseller/13/\", \"updated_at\": \"Fri, 22 Feb 2013 15:29:19 -0800\"}, {\"absolute_url\": \"/reseller/483/\", \"allow_branding\": false, \"allow_customer_branding\": false, \"branding_info\": \"/api/v1/brandinginfo/1952/\", \"created_at\": \"Wed, 27 Feb 2013 06:51:30 -0800\", \"id\": 483, \"name\": \"c22cdb9a5293d2904530ff0d19802b8c\", \"resource_uri\": \"/api/v1/reseller/483/\", \"updated_at\": \"Wed, 27 Feb 2013 06:51:30 -0800\"}, {\"absolute_url\": \"/reseller/256/\", \"allow_branding\": false, \"allow_customer_branding\": false, \"branding_info\": \"/api/v1/brandinginfo/1666/\", \"created_at\": \"Tue, 26 Feb 2013 04:32:16 -0800\", \"id\": 256, \"name\": \"c2f1e56d8b60dc7a28ba139e805c2f56\", \"resource_uri\": \"/api/v1/reseller/256/\", \"updated_at\": \"Tue, 26 Feb 2013 04:32:16 -0800\"}, {\"absolute_url\": \"/reseller/439/\", \"allow_branding\": false, \"allow_customer_branding\": false, \"branding_info\": \"/api/v1/brandinginfo/1897/\", \"created_at\": \"Wed, 27 Feb 2013 06:03:20 -0800\", \"id\": 439, \"name\": \"c33f2402fc22eeb14c2f457852059fc2\", \"resource_uri\": \"/api/v1/reseller/439/\", \"updated_at\": \"Wed, 27 Feb 2013 06:03:20 -0800\"}, {\"absolute_url\": \"/reseller/448/\", \"allow_branding\": false, \"allow_customer_branding\": false, \"branding_info\": \"/api/v1/brandinginfo/1909/\", \"created_at\": \"Wed, 27 Feb 2013 06:18:32 -0800\", \"id\": 448, \"name\": \"c947d16b361d6a5007e9cd9d3bb83c81\", \"resource_uri\": \"/api/v1/reseller/448/\", \"updated_at\": \"Wed, 27 Feb 2013 06:18:32 -0800\"}, {\"absolute_url\": \"/reseller/47/\", \"allow_branding\": false, \"allow_customer_branding\": false, \"branding_info\": \"/api/v1/brandinginfo/11/\", \"created_at\": \"Wed, 5 Sep 2012 10:43:10 -0700\", \"id\": 47, \"name\": \"Celera It Services\", \"resource_uri\": \"/api/v1/reseller/47/\", \"updated_at\": \"Sun, 24 Feb 2013 04:57:20 -0800\"}, {\"absolute_url\": \"/reseller/50/\", \"allow_branding\": false, \"allow_customer_branding\": false, \"branding_info\": \"/api/v1/brandinginfo/12/\", \"created_at\": \"Wed, 19 Sep 2012 09:34:52 -0700\", \"id\": 50, \"name\": \"Centurion Data Systems\", \"resource_uri\": \"/api/v1/reseller/50/\", \"updated_at\": \"Fri, 22 Feb 2013 15:29:19 -0800\"}]}"
    http_version:
  recorded_at: Wed, 27 Feb 2013 19:05:00 GMT
