---
http_interactions:
- request:
    method: get
    uri: https://admin-dev.mailroute.net/api/v1/reseller/
    body:
      string: ""
    headers:
      Accept:
      - application/json
      Authorization:
      - ApiKey blablablablabla@example.com:5f64xxxxxxxxxxxxxxxxxxxxxxxxxxxxxxxx8262
  response:
    status:
      code: 200
      message: OK
    headers:
      Transfer-Encoding:
      - chunked
      Connection:
      - keep-alive
      Vary:
      - Accept, Cookie
      - Accept-Encoding
      Content-Type:
      - application/json; charset=utf-8
      Cache-Control:
      - no-cache
      Date:
      - Wed, 27 Feb 2013 09:08:39 GMT
      Server:
      - nginx/1.2.1
    body:
      string: "{\"meta\": {\"limit\": 20, \"next\": \"/api/v1/reseller/?limit=20&offset=20\", \"offset\": 0, \"previous\": null, \"total_count\": 120}, \"objects\": [{\"absolute_url\": \"/reseller/279/\", \"allow_branding\": false, \"allow_customer_branding\": false, \"branding_info\": \"/api/v1/brandinginfo/1700/\", \"created_at\": \"Tue, 26 Feb 2013 09:43:43 -0800\", \"id\": 279, \"name\": \"a4e41e344283a4a883e9529fb5208064\", \"resource_uri\": \"/api/v1/reseller/279/\", \"updated_at\": \"Tue, 26 Feb 2013 09:43:43 -0800\"}, {\"absolute_url\": \"/reseller/215/\", \"allow_branding\": false, \"allow_customer_branding\": false, \"branding_info\": \"/api/v1/brandinginfo/1622/\", \"created_at\": \"Mon, 25 Feb 2013 13:05:34 -0800\", \"id\": 215, \"name\": \"a9a039e5a2f1e849df5a8ea4ed4e8914\", \"resource_uri\": \"/api/v1/reseller/215/\", \"updated_at\": \"Tue, 26 Feb 2013 04:37:44 -0800\"}, {\"absolute_url\": \"/reseller/55/\", \"allow_branding\": false, \"allow_customer_branding\": false, \"branding_info\": \"/api/v1/brandinginfo/2/\", \"created_at\": \"Thu, 8 Nov 2012 11:53:15 -0800\", \"id\": 55, \"name\": \"Accountants Edge\", \"resource_uri\": \"/api/v1/reseller/55/\", \"updated_at\": \"Fri, 22 Feb 2013 15:29:19 -0800\"}, {\"absolute_url\": \"/reseller/21/\", \"allow_branding\": false, \"allow_customer_branding\": false, \"branding_info\": \"/api/v1/brandinginfo/3/\", \"created_at\": \"Thu, 7 Jun 2012 15:37:00 -0700\", \"id\": 21, \"name\": \"AESSI\", \"resource_uri\": \"/api/v1/reseller/21/\", \"updated_at\": \"Fri, 22 Feb 2013 15:29:19 -0800\"}, {\"absolute_url\": \"/reseller/109/\", \"allow_branding\": false, \"allow_customer_branding\": false, \"branding_info\": \"/api/v1/brandinginfo/1515/\", \"created_at\": \"Sat, 23 Feb 2013 13:08:40 -0800\", \"id\": 109, \"name\": \"af094f7ccce96f3e122cc8e80b8b1df5\", \"resource_uri\": \"/api/v1/reseller/109/\", \"updated_at\": \"Sat, 23 Feb 2013 13:08:42 -0800\"}, {\"absolute_url\": \"/reseller/11/\", \"allow_branding\": false, \"allow_customer_branding\": false, \"branding_info\": \"/api/v1/brandinginfo/4/\", \"created_at\": \"Thu, 7 Jun 2012 15:28:44 -0700\", \"id\": 11, \"name\": \"AO IT Consulting\", \"resource_uri\": \"/api/v1/reseller/11/\", \"updated_at\": \"Fri, 22 Feb 2013 15:29:19 -0800\"}, {\"absolute_url\": \"/reseller/48/\", \"allow_branding\": false, \"allow_customer_branding\": false, \"branding_info\": \"/api/v1/brandinginfo/5/\", \"created_at\": \"Fri, 7 Sep 2012 17:00:00 -0700\", \"id\": 48, \"name\": \"Aptica, LLC\", \"resource_uri\": \"/api/v1/reseller/48/\", \"updated_at\": \"Fri, 22 Feb 2013 15:29:19 -0800\"}, {\"absolute_url\": \"/reseller/66/\", \"allow_branding\": false, \"allow_customer_branding\": false, \"branding_info\": \"/api/v1/brandinginfo/6/\", \"created_at\": \"Sat, 22 Dec 2012 12:16:36 -0800\", \"id\": 66, \"name\": \"Armour Networks Pty Ltd\", \"resource_uri\": \"/api/v1/reseller/66/\", \"updated_at\": \"Fri, 22 Feb 2013 15:29:19 -0800\"}, {\"absolute_url\": \"/reseller/80/\", \"allow_branding\": false, \"allow_customer_branding\": false, \"branding_info\": \"/api/v1/brandinginfo/7/\", \"created_at\": \"Fri, 1 Feb 2013 14:22:26 -0800\", \"id\": 80, \"name\": \"Azteche.com\", \"resource_uri\": \"/api/v1/reseller/80/\", \"updated_at\": \"Fri, 22 Feb 2013 15:29:19 -0800\"}, {\"absolute_url\": \"/reseller/179/\", \"allow_branding\": false, \"allow_customer_branding\": false, \"branding_info\": \"/api/v1/brandinginfo/1585/\", \"created_at\": \"Sun, 24 Feb 2013 06:05:40 -0800\", \"id\": 179, \"name\": \"b3a07c1594d52d6eb2e5c7b36322cb7c\", \"resource_uri\": \"/api/v1/reseller/179/\", \"updated_at\": \"Sun, 24 Feb 2013 06:05:40 -0800\"}, {\"absolute_url\": \"/reseller/276/\", \"allow_branding\": false, \"allow_customer_branding\": false, \"branding_info\": \"/api/v1/brandinginfo/1696/\", \"created_at\": \"Tue, 26 Feb 2013 09:41:59 -0800\", \"id\": 276, \"name\": \"b3a740d262bd59046de445a700a621cf\", \"resource_uri\": \"/api/v1/reseller/276/\", \"updated_at\": \"Tue, 26 Feb 2013 09:41:59 -0800\"}, {\"absolute_url\": \"/reseller/175/\", \"allow_branding\": false, \"allow_customer_branding\": false, \"branding_info\": \"/api/v1/brandinginfo/1581/\", \"created_at\": \"Sun, 24 Feb 2013 06:03:48 -0800\", \"id\": 175, \"name\": \"b7001333b77359eff8cdf90726eee4fd\", \"resource_uri\": \"/api/v1/reseller/175/\", \"updated_at\": \"Sun, 24 Feb 2013 06:03:48 -0800\"}, {\"absolute_url\": \"/reseller/271/\", \"allow_branding\": false, \"allow_customer_branding\": false, \"branding_info\": \"/api/v1/brandinginfo/1684/\", \"created_at\": \"Tue, 26 Feb 2013 04:43:54 -0800\", \"id\": 271, \"name\": \"b700e85a076bef81723111fb2037f3d5\", \"resource_uri\": \"/api/v1/reseller/271/\", \"updated_at\": \"Tue, 26 Feb 2013 04:43:54 -0800\"}, {\"absolute_url\": \"/reseller/107/\", \"allow_branding\": false, \"allow_customer_branding\": false, \"branding_info\": \"/api/v1/brandinginfo/1513/\", \"created_at\": \"Sat, 23 Feb 2013 12:58:28 -0800\", \"id\": 107, \"name\": \"b99ba07ed6dab53a6b04fc99aee20edd\", \"resource_uri\": \"/api/v1/reseller/107/\", \"updated_at\": \"Sat, 23 Feb 2013 12:58:30 -0800\"}, {\"absolute_url\": \"/reseller/292/\", \"allow_branding\": false, \"allow_customer_branding\": false, \"branding_info\": \"/api/v1/brandinginfo/1713/\", \"created_at\": \"Tue, 26 Feb 2013 13:32:43 -0800\", \"id\": 292, \"name\": \"ba5317347e9a01f4b510f39a3e70f407\", \"resource_uri\": \"/api/v1/reseller/292/\", \"updated_at\": \"Tue, 26 Feb 2013 13:32:43 -0800\"}, {\"absolute_url\": \"/reseller/97/\", \"allow_branding\": false, \"allow_customer_branding\": false, \"branding_info\": \"/api/v1/brandinginfo/1503/\", \"created_at\": \"Sat, 23 Feb 2013 11:55:17 -0800\", \"id\": 97, \"name\": \"bc191154c33992ea4fa86156528b2e3d\", \"resource_uri\": \"/api/v1/reseller/97/\", \"updated_at\": \"Sat, 23 Feb 2013 11:55:17 -0800\"}, {\"absolute_url\": \"/reseller/62/\", \"allow_branding\": false, \"allow_customer_branding\": false, \"branding_info\": \"/api/v1/brandinginfo/8/\", \"created_at\": \"Thu, 13 Dec 2012 08:45:11 -0800\", \"id\": 62, \"name\": \"BCG Canada Inc.\", \"resource_uri\": \"/api/v1/reseller/62/\", \"updated_at\": \"Fri, 22 Feb 2013 15:29:19 -0800\"}, {\"absolute_url\": \"/reseller/205/\", \"allow_branding\": false, \"allow_customer_branding\": false, \"branding_info\": \"/api/v1/brandinginfo/1611/\", \"created_at\": \"Sun, 24 Feb 2013 06:22:32 -0800\", \"id\": 205, \"name\": \"bdf68a3fde12ba23314762aa305b5ec1\", \"resource_uri\": \"/api/v1/reseller/205/\", \"updated_at\": \"Sun, 24 Feb 2013 06:22:32 -0800\"}, {\"absolute_url\": \"/reseller/101/\", \"allow_branding\": false, \"allow_customer_branding\": false, \"branding_info\": \"/api/v1/brandinginfo/1507/\", \"created_at\": \"Sat, 23 Feb 2013 12:10:07 -0800\", \"id\": 101, \"name\": \"bea56460c98fb7a662a96274bd48d147\", \"resource_uri\": \"/api/v1/reseller/101/\", \"updated_at\": \"Sat, 23 Feb 2013 12:10:07 -0800\"}, {\"absolute_url\": \"/reseller/46/\", \"allow_branding\": false, \"allow_customer_branding\": false, \"branding_info\": \"/api/v1/brandinginfo/9/\", \"created_at\": \"Wed, 15 Aug 2012 12:54:40 -0700\", \"id\": 46, \"name\": \"BrainStomp, Inc.\", \"resource_uri\": \"/api/v1/reseller/46/\", \"updated_at\": \"Fri, 22 Feb 2013 15:29:19 -0800\"}]}"
    http_version:
  recorded_at: Wed, 27 Feb 2013 09:08:39 GMT
recorded_with: VCR 2.4.0
