--- 
recorded_with: VCR 2.4.0
http_interactions: 
- request: 
    method: get
    uri: https://admin-dev.mailroute.net/api/v1/customer/?reseller=4
    body: 
      string: ""
    headers: 
      Accept: 
      - application/json
      Accept-Encoding: 
      - identity
      Authorization: 
      - ApiKey blablablablabla@example.com:5f64xxxxxxxxxxxxxxxxxxxxxxxxxxxxxxxx8262
      User-Agent: 
      - Ruby
  response: 
    status: 
      code: 200
      message: OK
    headers: 
      Server: 
      - nginx/1.2.1
      Connection: 
      - keep-alive
      Vary: 
      - Accept, Cookie
      - Accept-Encoding
      Cache-Control: 
      - no-cache
      Content-Type: 
      - application/json; charset=utf-8
      Date: 
      - Sun, 03 Mar 2013 16:30:17 GMT
      Transfer-Encoding: 
      - chunked
    body: 
      string: "{\"meta\": {\"limit\": 20, \"next\": \"/api/v1/customer/?limit=20&reseller=4&offset=20\", \"offset\": 0, \"previous\": null, \"total_count\": 26}, \"objects\": [{\"absolute_url\": \"/customer/1676/\", \"allow_branding\": false, \"branding_info\": \"/api/v1/brandinginfo/1687/\", \"created_at\": \"Tue, 26 Feb 2013 04:59:04 -0800\", \"id\": 1676, \"is_full_user_list\": false, \"name\": \"06f6abc1a77585fbffe0a80a956b0ec0\", \"reported_user_count\": null, \"reseller\": \"/api/v1/reseller/4/\", \"resource_uri\": \"/api/v1/customer/1676/\", \"updated_at\": \"Sun, 3 Mar 2013 08:09:48 -0800\"}, {\"absolute_url\": \"/customer/1668/\", \"allow_branding\": false, \"branding_info\": \"/api/v1/brandinginfo/1617/\", \"created_at\": \"Mon, 25 Feb 2013 13:03:35 -0800\", \"id\": 1668, \"is_full_user_list\": false, \"name\": \"08279fc82a3fd1e4cdab264b28ec539a\", \"reported_user_count\": null, \"reseller\": \"/api/v1/reseller/4/\", \"resource_uri\": \"/api/v1/customer/1668/\", \"updated_at\": \"Sun, 3 Mar 2013 08:09:45 -0800\"}, {\"absolute_url\": \"/customer/1687/\", \"allow_branding\": false, \"branding_info\": \"/api/v1/brandinginfo/1752/\", \"created_at\": \"Tue, 26 Feb 2013 14:31:39 -0800\", \"id\": 1687, \"is_full_user_list\": false, \"name\": \"0b87d254d26473e45bd23ffca2ce18ff\", \"reported_user_count\": null, \"reseller\": \"/api/v1/reseller/4/\", \"resource_uri\": \"/api/v1/customer/1687/\", \"updated_at\": \"Tue, 26 Feb 2013 14:31:39 -0800\"}, {\"absolute_url\": \"/customer/1675/\", \"allow_branding\": false, \"branding_info\": \"/api/v1/brandinginfo/1686/\", \"created_at\": \"Tue, 26 Feb 2013 04:46:11 -0800\", \"id\": 1675, \"is_full_user_list\": false, \"name\": \"1e84daec5fd1ccda3a915ca711de4fdb\", \"reported_user_count\": null, \"reseller\": \"/api/v1/reseller/4/\", \"resource_uri\": \"/api/v1/customer/1675/\", \"updated_at\": \"Tue, 26 Feb 2013 04:46:12 -0800\"}, {\"absolute_url\": \"/customer/1674/\", \"allow_branding\": false, \"branding_info\": \"/api/v1/brandinginfo/1680/\", \"created_at\": \"Tue, 26 Feb 2013 04:42:47 -0800\", \"id\": 1674, \"is_full_user_list\": false, \"name\": \"1fb7a2e4bb13fe26cc3c57439500877d\", \"reported_user_count\": null, \"reseller\": \"/api/v1/reseller/4/\", \"resource_uri\": \"/api/v1/customer/1674/\", \"updated_at\": \"Tue, 26 Feb 2013 04:42:47 -0800\"}, {\"absolute_url\": \"/customer/1684/\", \"allow_branding\": false, \"branding_info\": \"/api/v1/brandinginfo/1741/\", \"created_at\": \"Tue, 26 Feb 2013 14:13:19 -0800\", \"id\": 1684, \"is_full_user_list\": false, \"name\": \"33416c0134062cfeb693fbb126d8a5a9\", \"reported_user_count\": null, \"reseller\": \"/api/v1/reseller/4/\", \"resource_uri\": \"/api/v1/customer/1684/\", \"updated_at\": \"Tue, 26 Feb 2013 14:13:20 -0800\"}, {\"absolute_url\": \"/customer/1691/\", \"allow_branding\": false, \"branding_info\": \"/api/v1/brandinginfo/1765/\", \"created_at\": \"Tue, 26 Feb 2013 16:26:07 -0800\", \"id\": 1691, \"is_full_user_list\": false, \"name\": \"3daf0672133a51bbdaea0089ed4a0d9e\", \"reported_user_count\": null, \"reseller\": \"/api/v1/reseller/4/\", \"resource_uri\": \"/api/v1/customer/1691/\", \"updated_at\": \"Tue, 26 Feb 2013 16:26:07 -0800\"}, {\"absolute_url\": \"/customer/1692/\", \"allow_branding\": false, \"branding_info\": \"/api/v1/brandinginfo/1770/\", \"created_at\": \"Tue, 26 Feb 2013 16:26:25 -0800\", \"id\": 1692, \"is_full_user_list\": false, \"name\": \"51529f704c95a20f3fdb2f8b77d01e5d\", \"reported_user_count\": null, \"reseller\": \"/api/v1/reseller/4/\", \"resource_uri\": \"/api/v1/customer/1692/\", \"updated_at\": \"Tue, 26 Feb 2013 16:26:25 -0800\"}, {\"absolute_url\": \"/customer/1685/\", \"allow_branding\": false, \"branding_info\": \"/api/v1/brandinginfo/1746/\", \"created_at\": \"Tue, 26 Feb 2013 14:13:52 -0800\", \"id\": 1685, \"is_full_user_list\": false, \"name\": \"529a7c32efe72f33162a22be04caf9aa\", \"reported_user_count\": null, \"reseller\": \"/api/v1/reseller/4/\", \"resource_uri\": \"/api/v1/customer/1685/\", \"updated_at\": \"Tue, 26 Feb 2013 14:13:52 -0800\"}, {\"absolute_url\": \"/customer/1670/\", \"allow_branding\": false, \"branding_info\": \"/api/v1/brandinginfo/1637/\", \"created_at\": \"Tue, 26 Feb 2013 02:20:38 -0800\", \"id\": 1670, \"is_full_user_list\": false, \"name\": \"61fb6b751cc81ad0b9f6bb5b59877ce4\", \"reported_user_count\": null, \"reseller\": \"/api/v1/reseller/4/\", \"resource_uri\": \"/api/v1/customer/1670/\", \"updated_at\": \"Tue, 26 Feb 2013 02:20:38 -0800\"}, {\"absolute_url\": \"/customer/1678/\", \"allow_branding\": false, \"branding_info\": \"/api/v1/brandinginfo/1689/\", \"created_at\": \"Tue, 26 Feb 2013 05:19:29 -0800\", \"id\": 1678, \"is_full_user_list\": false, \"name\": \"69d14743a640b0bd7c8cdbc160183a16\", \"reported_user_count\": null, \"reseller\": \"/api/v1/reseller/4/\", \"resource_uri\": \"/api/v1/customer/1678/\", \"updated_at\": \"Tue, 26 Feb 2013 05:19:30 -0800\"}, {\"absolute_url\": \"/customer/1680/\", \"allow_branding\": false, \"branding_info\": \"/api/v1/brandinginfo/1691/\", \"created_at\": \"Tue, 26 Feb 2013 09:41:37 -0800\", \"id\": 1680, \"is_full_user_list\": false, \"name\": \"71b7866e8477b38b78e8381a0951be3a\", \"reported_user_count\": null, \"reseller\": \"/api/v1/reseller/4/\", \"resource_uri\": \"/api/v1/customer/1680/\", \"updated_at\": \"Tue, 26 Feb 2013 09:41:37 -0800\"}, {\"absolute_url\": \"/customer/1688/\", \"allow_branding\": false, \"branding_info\": \"/api/v1/brandinginfo/1753/\", \"created_at\": \"Tue, 26 Feb 2013 14:35:22 -0800\", \"id\": 1688, \"is_full_user_list\": false, \"name\": \"731747fc4c975a780bb647de89c92d4d\", \"reported_user_count\": null, \"reseller\": \"/api/v1/reseller/4/\", \"resource_uri\": \"/api/v1/customer/1688/\", \"updated_at\": \"Tue, 26 Feb 2013 14:35:22 -0800\"}, {\"absolute_url\": \"/customer/1682/\", \"allow_branding\": false, \"branding_info\": \"/api/v1/brandinginfo/1698/\", \"created_at\": \"Tue, 26 Feb 2013 09:43:33 -0800\", \"id\": 1682, \"is_full_user_list\": false, \"name\": \"767b926b6d08a19680b762b51c008b45\", \"reported_user_count\": null, \"reseller\": \"/api/v1/reseller/4/\", \"resource_uri\": \"/api/v1/customer/1682/\", \"updated_at\": \"Tue, 26 Feb 2013 09:43:34 -0800\"}, {\"absolute_url\": \"/customer/1671/\", \"allow_branding\": false, \"branding_info\": \"/api/v1/brandinginfo/1647/\", \"created_at\": \"Tue, 26 Feb 2013 04:15:43 -0800\", \"id\": 1671, \"is_full_user_list\": false, \"name\": \"98f8ae40786dca212f63dea8ee2fb0c2\", \"reported_user_count\": null, \"reseller\": \"/api/v1/reseller/4/\", \"resource_uri\": \"/api/v1/customer/1671/\", \"updated_at\": \"Tue, 26 Feb 2013 04:15:43 -0800\"}, {\"absolute_url\": \"/customer/1690/\", \"allow_branding\": false, \"branding_info\": \"/api/v1/brandinginfo/1757/\", \"created_at\": \"Tue, 26 Feb 2013 14:43:41 -0800\", \"id\": 1690, \"is_full_user_list\": false, \"name\": \"a30d1cd867ffff56724d2c1cca1e7d91\", \"reported_user_count\": null, \"reseller\": \"/api/v1/reseller/4/\", \"resource_uri\": \"/api/v1/customer/1690/\", \"updated_at\": \"Tue, 26 Feb 2013 14:43:41 -0800\"}, {\"absolute_url\": \"/customer/1689/\", \"allow_branding\": false, \"branding_info\": \"/api/v1/brandinginfo/1754/\", \"created_at\": \"Tue, 26 Feb 2013 14:43:31 -0800\", \"id\": 1689, \"is_full_user_list\": false, \"name\": \"abf81e405cd0f7af2cef5b4fc209d293\", \"reported_user_count\": null, \"reseller\": \"/api/v1/reseller/4/\", \"resource_uri\": \"/api/v1/customer/1689/\", \"updated_at\": \"Tue, 26 Feb 2013 14:43:31 -0800\"}, {\"absolute_url\": \"/customer/1669/\", \"allow_branding\": false, \"branding_info\": \"/api/v1/brandinginfo/1625/\", \"created_at\": \"Mon, 25 Feb 2013 13:05:39 -0800\", \"id\": 1669, \"is_full_user_list\": false, \"name\": \"b19bfc54933836ad4502f571f3089d97\", \"reported_user_count\": null, \"reseller\": \"/api/v1/reseller/4/\", \"resource_uri\": \"/api/v1/customer/1669/\", \"updated_at\": \"Mon, 25 Feb 2013 13:05:39 -0800\"}, {\"absolute_url\": \"/customer/1693/\", \"allow_branding\": false, \"branding_info\": \"/api/v1/brandinginfo/1771/\", \"created_at\": \"Tue, 26 Feb 2013 16:26:31 -0800\", \"id\": 1693, \"is_full_user_list\": false, \"name\": \"b9c9eb660629d693cb7e26b6ddeadbbb\", \"reported_user_count\": null, \"reseller\": \"/api/v1/reseller/4/\", \"resource_uri\": \"/api/v1/customer/1693/\", \"updated_at\": \"Tue, 26 Feb 2013 16:26:31 -0800\"}, {\"absolute_url\": \"/customer/1686/\", \"allow_branding\": false, \"branding_info\": \"/api/v1/brandinginfo/1751/\", \"created_at\": \"Tue, 26 Feb 2013 14:30:54 -0800\", \"id\": 1686, \"is_full_user_list\": false, \"name\": \"c5858b4c5e9da6d8771cc19bf98fe8dd\", \"reported_user_count\": null, \"reseller\": \"/api/v1/reseller/4/\", \"resource_uri\": \"/api/v1/customer/1686/\", \"updated_at\": \"Tue, 26 Feb 2013 14:30:55 -0800\"}]}"
    http_version: 
  recorded_at: Sun, 03 Mar 2013 16:30:18 GMT
